"Track URI","Track Name","Artist URI","Artist Name","Album URI","Album Name","Disc Number","Track Number","Track Duration (ms)","Added By","Added At"
"spotify:track:2dWCp5vcNwSy25zRVFGC5t","Shine On You Crazy Diamond, Pts. 1-5 - 2011 Remastered Version","spotify:artist:0k17h0D3J5VfsdmQ1iZtE9","Pink Floyd","spotify:album:1x0uzT3ETlIYjPueTyNfnQ","Wish You Were Here [2011 - Remaster] (2011 Remastered Version)","1","1","811077","spotify:user:klevstul","2015-12-07T11:35:43Z"
"spotify:track:107Jwc012wRPAvjI7WKCPI","Welcome To The Machine - 2011 Remastered Version","spotify:artist:0k17h0D3J5VfsdmQ1iZtE9","Pink Floyd","spotify:album:1x0uzT3ETlIYjPueTyNfnQ","Wish You Were Here [2011 - Remaster] (2011 Remastered Version)","1","2","451680","spotify:user:klevstul","2015-12-07T11:36:28Z"
"spotify:track:3tHDJ5MXuWRltkAGoWW6z6","Have A Cigar - 2011 Remastered Version","spotify:artist:0k17h0D3J5VfsdmQ1iZtE9","Pink Floyd","spotify:album:1x0uzT3ETlIYjPueTyNfnQ","Wish You Were Here [2011 - Remaster] (2011 Remastered Version)","1","3","307733","spotify:user:klevstul","2015-12-07T11:36:28Z"
"spotify:track:1wHSxWBfPr3GO31y8KGrWe","Wish You Were Here - 2011 Remastered Version","spotify:artist:0k17h0D3J5VfsdmQ1iZtE9","Pink Floyd","spotify:album:1x0uzT3ETlIYjPueTyNfnQ","Wish You Were Here [2011 - Remaster] (2011 Remastered Version)","1","4","334743","spotify:user:klevstul","2015-12-07T11:36:28Z"
"spotify:track:0W1uJJJsbbLxc1Sa9aLNxN","Shine On You Crazy Diamond, Pts. 6-9 - 2011 Remastered Version","spotify:artist:0k17h0D3J5VfsdmQ1iZtE9","Pink Floyd","spotify:album:1x0uzT3ETlIYjPueTyNfnQ","Wish You Were Here [2011 - Remaster] (2011 Remastered Version)","1","5","747325","spotify:user:klevstul","2015-12-07T11:36:28Z"
"spotify:track:2RIWb6YwSqdQTbWSNFBKYz","Speak To Me - 2011 Remastered Version","spotify:artist:0k17h0D3J5VfsdmQ1iZtE9","Pink Floyd","spotify:album:6uGYCZLXw3wPFOSYcqLz9F","The Dark Side Of The Moon (2011 Remastered Version)","1","1","65314","spotify:user:klevstul","2015-12-07T11:45:54Z"
"spotify:track:25IXTmOkHk6dcvd4TSOb3e","Breathe (In The Air) - 2011 Remastered Version","spotify:artist:0k17h0D3J5VfsdmQ1iZtE9","Pink Floyd","spotify:album:6uGYCZLXw3wPFOSYcqLz9F","The Dark Side Of The Moon (2011 Remastered Version)","1","2","169534","spotify:user:klevstul","2015-12-07T11:45:54Z"
"spotify:track:59hoIXPS05Q00dW1ZrSbAU","On The Run - 2011 Remastered Version","spotify:artist:0k17h0D3J5VfsdmQ1iZtE9","Pink Floyd","spotify:album:6uGYCZLXw3wPFOSYcqLz9F","The Dark Side Of The Moon (2011 Remastered Version)","1","3","225384","spotify:user:klevstul","2015-12-07T11:45:54Z"
"spotify:track:23W5DHu31ZLW9q0p2wQxfN","Time - 2011 Remastered Version","spotify:artist:0k17h0D3J5VfsdmQ1iZtE9","Pink Floyd","spotify:album:6uGYCZLXw3wPFOSYcqLz9F","The Dark Side Of The Moon (2011 Remastered Version)","1","4","413947","spotify:user:klevstul","2015-12-07T11:45:54Z"
"spotify:track:2nRbh2661Hc6a9meTvSGdF","The Great Gig In The Sky - 2011 Remastered Version","spotify:artist:0k17h0D3J5VfsdmQ1iZtE9","Pink Floyd","spotify:album:6uGYCZLXw3wPFOSYcqLz9F","The Dark Side Of The Moon (2011 Remastered Version)","1","5","283872","spotify:user:klevstul","2015-12-07T11:45:54Z"
"spotify:track:1SwE3FURO4wYshsLRggtfv","Money - 2011 Remastered Version","spotify:artist:0k17h0D3J5VfsdmQ1iZtE9","Pink Floyd","spotify:album:6uGYCZLXw3wPFOSYcqLz9F","The Dark Side Of The Moon (2011 Remastered Version)","1","6","382834","spotify:user:klevstul","2015-12-07T11:45:54Z"
"spotify:track:5i30AVO1rGmrTEqW3wKUy0","Us And Them - 2011 Remastered Version","spotify:artist:0k17h0D3J5VfsdmQ1iZtE9","Pink Floyd","spotify:album:6uGYCZLXw3wPFOSYcqLz9F","The Dark Side Of The Moon (2011 Remastered Version)","1","7","469224","spotify:user:klevstul","2015-12-07T11:45:54Z"
"spotify:track:28Or94doj1E8gUZCTekvsG","Any Colour You Like - 2011 Remastered Version","spotify:artist:0k17h0D3J5VfsdmQ1iZtE9","Pink Floyd","spotify:album:6uGYCZLXw3wPFOSYcqLz9F","The Dark Side Of The Moon (2011 Remastered Version)","1","8","206429","spotify:user:klevstul","2015-12-07T11:45:54Z"
"spotify:track:1KAsyqR4syiVIcplUXJZAS","Brain Damage - 2011 Remastered Version","spotify:artist:0k17h0D3J5VfsdmQ1iZtE9","Pink Floyd","spotify:album:6uGYCZLXw3wPFOSYcqLz9F","The Dark Side Of The Moon (2011 Remastered Version)","1","9","226666","spotify:user:klevstul","2015-12-07T11:45:54Z"
"spotify:track:11F32vzTXt5rtlBWcuiF2d","Eclipse - 2011 Remastered Version","spotify:artist:0k17h0D3J5VfsdmQ1iZtE9","Pink Floyd","spotify:album:6uGYCZLXw3wPFOSYcqLz9F","The Dark Side Of The Moon (2011 Remastered Version)","1","10","130428","spotify:user:klevstul","2015-12-07T11:45:54Z"
"spotify:track:0Cr3z2gm7TXQ17Yq1zjV4I","Pigs On The Wing (Part One) [2011 - Remaster]","spotify:artist:0k17h0D3J5VfsdmQ1iZtE9","Pink Floyd","spotify:album:21jUB9RqplD6OqtsTjKBnO","Animals (2011 Remastered Version)","1","1","84280","spotify:user:klevstul","2015-12-07T12:27:32Z"
"spotify:track:7yWdsy6UHRTun4hkJZJYNq","Dogs - 2011 Remastered Version","spotify:artist:0k17h0D3J5VfsdmQ1iZtE9","Pink Floyd","spotify:album:21jUB9RqplD6OqtsTjKBnO","Animals (2011 Remastered Version)","1","2","1025280","spotify:user:klevstul","2015-12-07T12:27:32Z"
"spotify:track:23dTQ4fjLrPPbYHamkJDzo","Pigs (Three Different Ones) [2011 - Remaster]","spotify:artist:0k17h0D3J5VfsdmQ1iZtE9","Pink Floyd","spotify:album:21jUB9RqplD6OqtsTjKBnO","Animals (2011 Remastered Version)","1","3","685880","spotify:user:klevstul","2015-12-07T12:27:32Z"
"spotify:track:33MQVOulAb4ZlUP2l3yZBG","Sheep - 2011 Remastered Version","spotify:artist:0k17h0D3J5VfsdmQ1iZtE9","Pink Floyd","spotify:album:21jUB9RqplD6OqtsTjKBnO","Animals (2011 Remastered Version)","1","4","619079","spotify:user:klevstul","2015-12-07T12:27:32Z"
"spotify:track:2RBSzV75kOKEpRoL1CQ3Ej","Pigs On The Wing (Part Two) [2011 - Remaster]","spotify:artist:0k17h0D3J5VfsdmQ1iZtE9","Pink Floyd","spotify:album:21jUB9RqplD6OqtsTjKBnO","Animals (2011 Remastered Version)","1","5","86696","spotify:user:klevstul","2015-12-07T12:27:32Z"
"spotify:track:0Ga3szKsJOeZ0eAfydm1WV","One Of These Days - 2011 Remastered Version","spotify:artist:0k17h0D3J5VfsdmQ1iZtE9","Pink Floyd","spotify:album:7yKRvvqspSxfLkr7C7RaAI","Meddle (2011 Remastered Version)","1","1","354613","spotify:user:klevstul","2016-01-12T20:43:25Z"
"spotify:track:1Mzm1CNqVxtwbCYhOo843s","Echoes - 2011 Remastered Version","spotify:artist:0k17h0D3J5VfsdmQ1iZtE9","Pink Floyd","spotify:album:7yKRvvqspSxfLkr7C7RaAI","Meddle (2011 Remastered Version)","1","6","1412451","spotify:user:klevstul","2016-01-12T20:43:29Z"
"spotify:track:5uF3hldjpeDjlSPhUYa1Ob","The Post War Dream - 2011 Remastered Version","spotify:artist:0k17h0D3J5VfsdmQ1iZtE9","Pink Floyd","spotify:album:5ChHkKb5VhZe0pgQRsvpek","The Final Cut (2011 Remastered Version)","1","1","179359","spotify:user:klevstul","2016-01-12T20:45:31Z"
"spotify:track:2espysVKOqumSCzevPfdSa","Your Possible Pasts - 2011 Remastered Version","spotify:artist:0k17h0D3J5VfsdmQ1iZtE9","Pink Floyd","spotify:album:5ChHkKb5VhZe0pgQRsvpek","The Final Cut (2011 Remastered Version)","1","2","266302","spotify:user:klevstul","2016-01-12T20:45:31Z"
"spotify:track:56xbGPjb5lWowId6TzWYDP","One Of The Few - 2011 Remastered Version","spotify:artist:0k17h0D3J5VfsdmQ1iZtE9","Pink Floyd","spotify:album:5ChHkKb5VhZe0pgQRsvpek","The Final Cut (2011 Remastered Version)","1","3","77029","spotify:user:klevstul","2016-01-12T20:45:31Z"
"spotify:track:76VhGRUh7K6kqKu32HYmo3","When The Tigers Broke Free - 2011 Remastered Version","spotify:artist:0k17h0D3J5VfsdmQ1iZtE9","Pink Floyd","spotify:album:5ChHkKb5VhZe0pgQRsvpek","The Final Cut (2011 Remastered Version)","1","4","192161","spotify:user:klevstul","2016-01-12T20:45:31Z"
"spotify:track:54d2PRmVn7wYXsjiQ6lfsp","The Hero's Return - 2011 Remastered Version","spotify:artist:0k17h0D3J5VfsdmQ1iZtE9","Pink Floyd","spotify:album:5ChHkKb5VhZe0pgQRsvpek","The Final Cut (2011 Remastered Version)","1","5","162825","spotify:user:klevstul","2016-01-12T20:45:31Z"
"spotify:track:747469RU5d5GzavkG4F4L3","The Gunner's Dream - 2011 Remastered Version","spotify:artist:0k17h0D3J5VfsdmQ1iZtE9","Pink Floyd","spotify:album:5ChHkKb5VhZe0pgQRsvpek","The Final Cut (2011 Remastered Version)","1","6","318239","spotify:user:klevstul","2016-01-12T20:45:31Z"
"spotify:track:0UhtkNcvPldIVLiPJd4c9k","Paranoid Eyes - 2011 Remastered Version","spotify:artist:0k17h0D3J5VfsdmQ1iZtE9","Pink Floyd","spotify:album:5ChHkKb5VhZe0pgQRsvpek","The Final Cut (2011 Remastered Version)","1","7","221600","spotify:user:klevstul","2016-01-12T20:45:31Z"
"spotify:track:0zn7XCcA5eYJGbUjGNm6G1","Get Your Filthy Hands Off My Desert - 2011 Remastered Version","spotify:artist:0k17h0D3J5VfsdmQ1iZtE9","Pink Floyd","spotify:album:5ChHkKb5VhZe0pgQRsvpek","The Final Cut (2011 Remastered Version)","1","8","76906","spotify:user:klevstul","2016-01-12T20:45:31Z"
"spotify:track:0brCwVt3kQES8K9qpJorQo","The Fletcher Memorial Home - 2011 Remaster","spotify:artist:0k17h0D3J5VfsdmQ1iZtE9","Pink Floyd","spotify:album:5ChHkKb5VhZe0pgQRsvpek","The Final Cut (2011 Remastered Version)","1","9","249441","spotify:user:klevstul","2016-01-12T20:45:31Z"
"spotify:track:1UFmLfC3GtC4qSQAEj4cJF","Southampton Dock - 2011 Remastered Version","spotify:artist:0k17h0D3J5VfsdmQ1iZtE9","Pink Floyd","spotify:album:5ChHkKb5VhZe0pgQRsvpek","The Final Cut (2011 Remastered Version)","1","10","133465","spotify:user:klevstul","2016-01-12T20:45:31Z"
"spotify:track:0WYgwytKjOkmwOdmIehpDF","The Final Cut - 2011 Remastered Version","spotify:artist:0k17h0D3J5VfsdmQ1iZtE9","Pink Floyd","spotify:album:5ChHkKb5VhZe0pgQRsvpek","The Final Cut (2011 Remastered Version)","1","11","282602","spotify:user:klevstul","2016-01-12T20:45:31Z"
"spotify:track:4nQHa8Gwx1gJfyB8X2cSsR","Not Now John - 2011 Remastered Version","spotify:artist:0k17h0D3J5VfsdmQ1iZtE9","Pink Floyd","spotify:album:5ChHkKb5VhZe0pgQRsvpek","The Final Cut (2011 Remastered Version)","1","12","301209","spotify:user:klevstul","2016-01-12T20:45:31Z"
"spotify:track:7yxIrfiMzvgAp4TuXiSsxn","Two Suns In The Sunset - 2011 Remastered Version","spotify:artist:0k17h0D3J5VfsdmQ1iZtE9","Pink Floyd","spotify:album:5ChHkKb5VhZe0pgQRsvpek","The Final Cut (2011 Remastered Version)","1","13","315444","spotify:user:klevstul","2016-01-12T20:45:31Z"
"spotify:track:05dAlMH3j0touH9SLrCAlZ","Childhood's End - 2016 Remix","spotify:artist:0k17h0D3J5VfsdmQ1iZtE9","Pink Floyd","spotify:album:4WwjYnJDCKqfeZ04Gcr5oB","Childhood's End (2016 Remix)","1","1","273346","spotify:user:klevstul","2017-04-28T21:07:05Z"
