"Track URI","Track Name","Artist URI","Artist Name","Album URI","Album Name","Disc Number","Track Number","Track Duration (ms)","Added By","Added At"
"spotify:track:2qTN5npa6qLrRe4zu0kGyj","Simple Thought - Stefan Torto remake","spotify:artist:1ZkzZQBhWZvwIp1HzUGSpk","Zen Garden","spotify:album:2a0B2jiTiMCnTcz9N4XBTv","Oceanian Dreams","1","6","402600","spotify:user:klevstul","2014-06-15T20:18:57Z"
"spotify:track:29R4GBsaRu2oOc81zvlRDA","Adagio for the Braves","spotify:artist:1DCpCWnJixzh0p9vwOo5sK","Akshan","spotify:album:3U9qJrGe5uFX3HwYFb2YmM","The Tree of Life","1","2","600232","spotify:user:klevstul","2014-06-15T20:31:35Z"
"spotify:track:1rgaq3ZSFzyVTmh2WHKb5V","Angels Never Cry","spotify:artist:1DCpCWnJixzh0p9vwOo5sK","Akshan","spotify:album:3U9qJrGe5uFX3HwYFb2YmM","The Tree of Life","1","3","517565","spotify:user:klevstul","2014-06-15T20:40:19Z"
"spotify:track:61SHY55nUcuk3kk1tYp2Pf","Floating Retention","spotify:artist:6nwGLbfNWg1SmPsaoYgXRA","Cell","spotify:album:5gGUIeDGCC1gUvDhNBJxyQ","[ Oxycanta ]","1","5","622067","spotify:user:klevstul","2014-06-15T21:36:38Z"
"spotify:track:5L7e8DI1gn0uV1LVvbe6Bf","Rainfall","spotify:artist:0i3rXQVnr4SE5pl3qtBM2o, spotify:artist:7DpdLfsDRTO1O27NkcOam2","Koan, Krusseldorf","spotify:album:0YEJ42SxgD15cmZzbrTry8","Relax Mode","1","4","510098","spotify:user:klevstul","2014-06-15T22:35:58Z"
"spotify:track:5vPCbRIfe1Mencn8j3mRYH","Hidden Places","spotify:artist:0b157fwkzOcoRfuNXJ12lb","Lars Leonhard","spotify:album:51TbqQnvGbj3A5iWGr5nw2","Stella Nova","1","3","338181","spotify:user:klevstul","2014-06-15T22:59:36Z"
"spotify:track:1JTUlDSEIYDtExqJL5JpAs","Sleepy Shadows","spotify:artist:0wylNFUU44Oo8JO2382t99","Malik Trey","spotify:album:0FTFbrfmDhHaa8K8HOH4wf","OXYCANTA - Winter Blooms","1","5","420924","spotify:user:klevstul","2014-06-15T23:06:07Z"
"spotify:track:4P8qXnroR43S0xk0hmSbNs","Les Nuits","spotify:artist:4tNxq9NGKTKaX8OkZBLgf0","Nightmares On Wax","spotify:album:5pwdeiIEpfn2TF7M1J21MR","Carboot Soul","1","1","380626","spotify:user:klevstul","2014-06-15T23:18:26Z"
"spotify:track:2MddqD0MryxIAKS03raHsz","You Wish","spotify:artist:4tNxq9NGKTKaX8OkZBLgf0","Nightmares On Wax","spotify:album:76IdrUoD3S7mXFww6H78Cf","In A Space Outta Sound","1","6","210466","spotify:user:klevstul","2014-06-15T23:18:46Z"
"spotify:track:4N9VvXwOkz5iCOSmE5OKGh","Rites of Passage","spotify:artist:7dSn0mEhOoCO7TA8biZRq6","Phutureprimitive","spotify:album:55i5nPiTfmrf1w21SHFT1P","Sub Conscious","1","1","679986","spotify:user:klevstul","2014-06-15T23:22:49Z"
"spotify:track:16r3eov8Zifye0oeiIFEhC","Darkness","spotify:artist:7dSn0mEhOoCO7TA8biZRq6","Phutureprimitive","spotify:album:55i5nPiTfmrf1w21SHFT1P","Sub Conscious","1","2","449840","spotify:user:klevstul","2014-06-15T23:23:07Z"
"spotify:track:3R4CQCdnQDkr25QuXT3jVO","Center of Gravity","spotify:artist:7dSn0mEhOoCO7TA8biZRq6","Phutureprimitive","spotify:album:3KWMHvauWZS4wPwN07SKlK","Kinetik","1","9","269700","spotify:user:klevstul","2014-06-15T23:28:41Z"
"spotify:track:7GSDFd5TBcfegIaUlafvHd","Elysium","spotify:artist:7dSn0mEhOoCO7TA8biZRq6","Phutureprimitive","spotify:album:55i5nPiTfmrf1w21SHFT1P","Sub Conscious","1","3","512360","spotify:user:klevstul","2014-06-15T23:37:21Z"
"spotify:track:7mK0fjkZczf90iPe0m37Vn","Under the Stars","spotify:artist:1E3U6xaEyLnpqVFO3x5fIN","Saafi Brothers","spotify:album:41OJf7Wbp8ErhMv50zIx1V","Supernatural","1","10","387653","spotify:user:klevstul","2014-06-15T23:51:08Z"
"spotify:track:2XyxrDkgCIixIlf0J28L8q","Supernatural","spotify:artist:1E3U6xaEyLnpqVFO3x5fIN","Saafi Brothers","spotify:album:41OJf7Wbp8ErhMv50zIx1V","Supernatural","1","11","412640","spotify:user:klevstul","2014-06-15T23:55:41Z"
"spotify:track:2tohngElj6OzZl1PuEmoSW","Listen to the Flowers Grow - Aes Dana rmx","spotify:artist:3XevFS6VLamN0SohWyAT7F, spotify:artist:6n1fB5NgTsFNdT4JHpVMe1","Subgardens, AES DANA","spotify:album:5gGUIeDGCC1gUvDhNBJxyQ","[ Oxycanta ]","1","9","463931","spotify:user:klevstul","2014-06-16T00:16:56Z"
"spotify:track:5QMq0W3afpX87NMZ4JskwL","Solar Ohm","spotify:artist:3F3I57bH1shH7osXaQL1H0","Merkaba","spotify:album:4SPIne5iVCwlIJ9s68R5Nc","Language of Light","1","1","687607","spotify:user:klevstul","2014-06-16T10:53:18Z"
"spotify:track:3ZzhV6JIDKWvWR7wiKWD0C","La femme d'argent","spotify:artist:1P6U1dCeHxPui5pIrGmndZ","Air","spotify:album:5dmYtZVJ1bG9RyrZBRrkOA","Moon Safari","1","1","426614","spotify:user:klevstul","2014-06-16T10:59:38Z"
"spotify:track:4BlgD9buyKeFM1mTOEPYCU","Kelly Watch the Stars - Moog Cookbook Remix","spotify:artist:1P6U1dCeHxPui5pIrGmndZ, spotify:artist:6gSjljVm0yuKul0N4fgBbG","Air, The Moog Cookbook","spotify:album:2HypdH9T0bK9YEq7ama4Iq","Moon Safari Remixes, Rarities and Radio Sessions","1","2","340720","spotify:user:klevstul","2014-06-16T11:01:53Z"
"spotify:track:26bo8moGYweJEnLT14lWKv","All Sleeping - Desert Dwellers Remix","spotify:artist:5Z8mapYkacgBN46TkH9L3M, spotify:artist:6EN5zX1Q2W7qcesyatdUfO","Banco De Gaia, Desert Dwellers","spotify:album:5MnFVnyxufNzZWKc7btqrl","Ollopa: Apollo Remixed","1","3","396345","spotify:user:klevstul","2014-06-16T11:12:44Z"
"spotify:track:7MdJ61n3qYlmSDaUMkeDA5","Hu! - Unusual Cosmic Process Remix","spotify:artist:5Z8mapYkacgBN46TkH9L3M, spotify:artist:37oPFegoFXsfDNMdVOASlT","Banco De Gaia, Unusual Cosmic Process","spotify:album:5MnFVnyxufNzZWKc7btqrl","Ollopa: Apollo Remixed","1","4","464507","spotify:user:klevstul","2014-06-16T11:22:09Z"
"spotify:track:5wwm0rmT3G3ulIGLxP9grh","For Such a Time - System 7 Remix","spotify:artist:5Z8mapYkacgBN46TkH9L3M, spotify:artist:2JrTxbnRU8RGKyuyHE8SGP","Banco De Gaia, System 7","spotify:album:5MnFVnyxufNzZWKc7btqrl","Ollopa: Apollo Remixed","1","6","454086","spotify:user:klevstul","2014-06-16T11:23:16Z"
"spotify:track:1z2LaZt7viC1oCwUiKI95T","Autumn Leaves - Irresistible Force mix","spotify:artist:5wnhqlZzXIq8aO9awQO2ND","Coldcut","spotify:album:4oMQ0KQbBbzKnlzqHertAB","Ninja Tune Retrospect (No. 1)","1","10","426746","spotify:user:klevstul","2014-06-16T12:02:10Z"
"spotify:track:6byVrruF9GkqCbe00BJsZM","Jupiter Shift","spotify:artist:5eKLa1xyHLq8ERWmT1CRHj","The Crystal Method","spotify:album:3qeMjvHUIickgrvVilvpy4","The Crystal Method","1","6","303874","spotify:user:klevstul","2014-06-16T12:10:28Z"
"spotify:track:1deIaRKjGzm4IyciGEesPg","Awakening","spotify:artist:6iN4rog3fQPLEju8xXYU4x","Primeaux & Mike","spotify:album:36D8ZIGQU6MU2mU1D4nlj8","Prophecy: A Hearts of Space Native American Collection","1","5","289653","spotify:user:klevstul","2014-06-16T12:47:52Z"
"spotify:track:7ejRgruNs77F81602lXJ75","Forsaken Dune (Punjabi Mix)","spotify:artist:0daNCQFupt8R6HbC07NCo4","Persia Beatz","spotify:album:0BodcQxpuECO3iQucRW7vY","Buddha Deluxe Lounge Vol. 6 - Mystic Chill Sounds","1","1","360000","spotify:user:klevstul","2014-06-16T12:49:57Z"
"spotify:track:5Nn2Dj7OQsGL6pgQ9iIzPp","Ghostwriter","spotify:artist:1O3ZOjqFLEnbpZexcRjocn","RJD2","spotify:album:7DmNwRBDJRUEFUlk3oa2Aj","Deadringer: Deluxe","1","6","317933","spotify:user:klevstul","2014-06-16T12:50:49Z"
"spotify:track:09aNhXGvfo8wAhUxcsDFlZ","1976","spotify:artist:1O3ZOjqFLEnbpZexcRjocn","RJD2","spotify:album:0jbra7wbupwZLAYxjxNiJv","Since We Last Spoke: Deluxe","1","3","147280","spotify:user:klevstul","2014-06-16T12:51:03Z"
"spotify:track:2C1nOw1nRxJaBWb9I1x05A","Smoke & Mirrors","spotify:artist:1O3ZOjqFLEnbpZexcRjocn","RJD2","spotify:album:7DmNwRBDJRUEFUlk3oa2Aj","Deadringer: Deluxe","1","3","266200","spotify:user:klevstul","2014-06-16T12:51:14Z"
"spotify:track:0mB00lJtyzRvqG80thpQo8","18 Portraits of Atlas","spotify:artist:7kSP0XY1UueKCMOGJhIV9N","Masakatsu Takagi","spotify:album:3ZDnBKdoTKLZk9nN4UoL1l","Mikrokozmosz 2003-2007","1","7","292579","spotify:user:klevstul","2014-06-16T13:14:48Z"
"spotify:track:488E8BWYDCDrL6vunOAzPy","Lebanese Blonde","spotify:artist:25KNo5GDS6ZpLkjasaecA3","Thievery Corporation","spotify:album:12PENKuzKH3r1Kv2rlCjZn","The Mirror Conspiracy","1","4","290826","spotify:user:klevstul","2014-06-16T13:18:22Z"
"spotify:track:6dNz6bwh5GMqUHQqmtI5iA","Holographic Universe","spotify:artist:25KNo5GDS6ZpLkjasaecA3","Thievery Corporation","spotify:album:6p1BI7i1XIGzJCr0cfp0US","It Takes A Thief","1","4","222026","spotify:user:klevstul","2014-06-16T13:22:27Z"
"spotify:track:00z9Rax2KTHqKLKYnGHzNk","Water From A Vine Leaf","spotify:artist:2AHGrNDMKFi8rHqQ8kJqfl","William Orbit","spotify:album:05o8RGynCcMIhKqWfl2mS9","Best Of Strange Cargo","1","1","421760","spotify:user:klevstul","2014-06-16T13:29:03Z"
"spotify:track:0VCQaWo68h62F8VNe1HWCE","Let Go","spotify:artist:6MUyqmIQ35inLjch0YzIEG","Frou Frou","spotify:album:24mCiOTIF5Ob1uwluRFERv","Garden State - Music From The Motion Picture","1","12","251640","spotify:user:klevstul","2014-06-16T13:30:45Z"
"spotify:track:1ahH3MYCGIPlYMTJZXDWYA","In Motion - Good Morning Edit / 2014 Remaster","spotify:artist:7GyhmlEy51sGUE09A5AWzc","Solar Fields","spotify:album:5lOGdXBwGEDsStJYbTw1cA","BLUE (2014 Remaster)","1","10","686846","spotify:user:klevstul","2014-06-16T20:34:04Z"
"spotify:track:3sjpoP1GGQVDiqwFINUKuC","Oxygene, Pt. 2","spotify:artist:5MhLmv7GgyjbxGqiIGasvT","Jean-Michel Jarre","spotify:album:2fUrnjG4BPBH52aEAv1XyA","Oxygène","1","2","466306","spotify:user:klevstul","2014-06-17T21:43:52Z"
"spotify:track:687qZGqKcVN9g3obktSKHk","Journeyman","spotify:artist:3mvkWMe6swnknwscwvGCHO","Amon Tobin","spotify:album:6JiPQzrQs9VTk0cRW9kyS2","ISAM","1","1","398600","spotify:user:klevstul","2014-06-17T22:22:22Z"
"spotify:track:2dOrIpvI6F3696Pxvk5TqU","Insomniac Olympics","spotify:artist:7bHm3B3jJju0q9FUdOgp3b","Blockhead","spotify:album:4oMQ0KQbBbzKnlzqHertAB","Ninja Tune Retrospect (No. 1)","1","4","306586","spotify:user:klevstul","2014-06-17T22:38:46Z"
"spotify:track:6QMUcBZ5lIJVkvnSK1qynw","Skanky Panky","spotify:artist:2s0438sn0pYL2OuukcFqPN","Kid Koala","spotify:album:4oMQ0KQbBbzKnlzqHertAB","Ninja Tune Retrospect (No. 1)","1","21","203840","spotify:user:klevstul","2014-06-17T23:14:21Z"
"spotify:track:7gL6BdlpsBwI5SW1t9ifDT","2 bit Blues","spotify:artist:2s0438sn0pYL2OuukcFqPN","Kid Koala","spotify:album:1zEEFEr99WZwn4cRKhDRNA","12 bit Blues","1","2","207786","spotify:user:klevstul","2014-06-17T23:15:13Z"
"spotify:track:1OQW3RYbBt4AvL5NCLDvQt","4 bit Blues","spotify:artist:2s0438sn0pYL2OuukcFqPN","Kid Koala","spotify:album:1zEEFEr99WZwn4cRKhDRNA","12 bit Blues","1","4","234000","spotify:user:klevstul","2014-06-17T23:21:31Z"
"spotify:track:3mLarKA6cecFRolMxgTWsf","9 bit Blues","spotify:artist:2s0438sn0pYL2OuukcFqPN","Kid Koala","spotify:album:1zEEFEr99WZwn4cRKhDRNA","12 bit Blues","1","9","136026","spotify:user:klevstul","2014-06-17T23:25:56Z"
"spotify:track:37WssUIwxFxg785SVYSc6H","The Keeper - Alex Banks Remix","spotify:artist:0cmWgDlu9CwTgxPhf403hb, spotify:artist:6SKEuFZYhaTytrhtJjgnO2, spotify:artist:2eQoWrMAVomftJQMFnZ6iE","Bonobo, Andreya Triana, Alex Banks","spotify:album:2tcn5o1g4FuVRuMGjn7G4v","Black Sands Remixed","1","2","371133","spotify:user:klevstul","2014-06-18T20:49:47Z"
"spotify:track:4tEKdT60VxB1Vwr1tJCusm","Hemlock Switch-One","spotify:artist:0fgc2GpENm7YqdUwqA1Ons","Spunkshine","spotify:album:67Qysfovx88WzaT5QB5OGK","Brotherhood of Good Explosions","1","3","256066","spotify:user:klevstul","2014-06-18T20:53:59Z"
"spotify:track:2Il2EdhsgaLmBszoqfHr94","Do You Know Squarepusher","spotify:artist:4mtHSXwIHihO6MWNq5Qoko","Squarepusher","spotify:album:2E1b73aV55wbSSc2Cd7hmX","Do You Know Squarepusher","1","1","305533","spotify:user:klevstul","2014-06-18T21:00:47Z"
"spotify:track:0ZLh21Wa9BFBmVuhobVpHI","Drift Away","spotify:artist:06EfEcjc0vdvI6VNL0soIO, spotify:artist:3CiuuHKIxxJPoNRvF94GtR","Rameses B, Veela","spotify:album:2l09EabR5mDPCiKwRWjmBn","Drift Away","1","1","308228","spotify:user:klevstul","2014-06-18T21:01:06Z"
"spotify:track:7c92CVEd099vuiEMWQFiBE","Marijuana Dreams (RED HANDS COMMON & KOE DNB REMIX)","spotify:artist:0buEN7H6AlTsvWb4BPazoV","Dubblestandart","spotify:album:6KYNvEsPu3fmE5LwxbcTwo","Dubstep EP 2","1","1","411592","spotify:user:klevstul","2014-06-18T21:01:31Z"
"spotify:track:1KVJTAeWUYmfaDaLnXCuys","Afterglow","spotify:artist:7lbp0JENEyGMN7LgqF25Yq, spotify:artist:5NkUpXWkeXspvu7iQQOHhP, spotify:artist:6fy0RqV5OGAoGKVtbEvW6T","Phaeleh ft. Soundmouse, Phaeleh, Soundmouse","spotify:album:1i6hunJoJRs2AmoyxMXd7C","Fallen Light","1","1","280810","spotify:user:klevstul","2014-06-18T21:02:04Z"
"spotify:track:6zK6tHtbYjmc8zesa7e8br","Original - Remastered","spotify:artist:72hqBMsw7x5jnfxxwkii8L","Leftfield","spotify:album:6Hh2XrY2Yuse8omAzSabdp","Leftism","1","5","382154","spotify:user:klevstul","2014-06-18T21:05:31Z"
"spotify:track:4XHHJJv7e9KowU079m0aOX","Lost in Tokyo - Original Mix","spotify:artist:3TsEEdpuuCN1G0dPxV4uOA","Koreless","spotify:album:4qanHHwHI16I9Yyc85IEeS","Lost in Tokyo","1","1","218316","spotify:user:klevstul","2014-06-18T21:05:45Z"
"spotify:track:4d0p0JjmkHuUQ2x05aE8mh","Her Er Eg - Xerxes Remix","spotify:artist:4hgZPZTz0bKnWEiXLMtmgp","Jonas Kroon","spotify:album:04yiOkdAa1PzWv6I5JTQne","Melo","1","14","319880","spotify:user:klevstul","2014-06-18T21:05:57Z"
"spotify:track:1ipS1pdAnpqTz0QMZePTz1","Time Alone","spotify:artist:0opAvk3f111m6Jbp7f9Vi4","Josh Martinez","spotify:album:184nzlGREiimS4vHXETnKW","Midriff Music","1","7","288613","spotify:user:klevstul","2014-06-18T21:07:25Z"
"spotify:track:73NS1zNoYCSFSM3JMji1uV","Take Your Time","spotify:artist:3HRRzIZNQFus3xlUx2xKy1, spotify:artist:6tWikeOxr6awcL0rmWQkfw","Joris Delacroix, Nancy","spotify:album:6pfuTFB8g61vkYvigdpDhD","Room With View","1","1","264960","spotify:user:klevstul","2014-06-18T21:12:10Z"
"spotify:track:5YKvnB0QFRarJ4ZMnD7fHr","Silent Shout","spotify:artist:7eQZTqEMozBcuSubfu52i4","The Knife","spotify:album:0vxvtqurvPXw7s0OVtavMf","Silent Shout","1","1","293640","spotify:user:klevstul","2014-06-18T21:14:08Z"
"spotify:track:2qXauYZQT3T5awSyga1zbF","Spectrum - Maya Jane Coles Remix","spotify:artist:1moxjboGR7GNWYIMWsRjgG, spotify:artist:6TshTCYwh9ySzOO6Jy4Ux2","Florence + The Machine, Maya Jane Coles","spotify:album:6dPJH6Kw5MW3eBO3fh4qiQ","Spectrum (Say My Name) EP","1","3","300572","spotify:user:klevstul","2014-06-18T21:14:22Z"
"spotify:track:3fHpWn1aPVIDvHc3ddb3og","Stage Whisper","spotify:artist:4JNofTGt2TRZP8X3idxJ4P","Goodspeed","spotify:album:4NF4S7ZolnBNjU32IKSZl7","Stage Whisper","1","1","396850","spotify:user:klevstul","2014-06-18T21:15:13Z"
"spotify:track:6yAIHpAAIEHcWzbx3H8HTy","Lost","spotify:artist:05lF0DUkLJqiW5o70SScyR","Hybrid Minds","spotify:album:273KQpIxu6XeDhXmmUGbMK","UKF Bass Culture 2","1","21","334628","spotify:user:klevstul","2014-06-18T21:17:34Z"
"spotify:track:5huwWcOSD6SNp0N0dFTs57","Hayling","spotify:artist:1UQ5GQDdYPKgbIEn9sMiSg, spotify:artist:1tNJibl39hvCIVSnGaiwx5","FC Kahuna, Hafdís Huld","spotify:album:0SkzUiGxWDIkSNKhfGxSLZ","Machine Says Yes","1","1","407973","spotify:user:klevstul","2014-06-18T23:00:59Z"
"spotify:track:0lRBBJ4dzuRZVGtebgz5Av","Rites - Special Edit for the film","spotify:artist:7MEyCD4G0Zl6kmikEAZsym","Jan Garbarek","spotify:album:2rjgaDHuwXG0DgqUTWV0FS","The Insider - Motion Picture Soundtrack","1","14","333893","spotify:user:klevstul","2014-06-19T09:02:22Z"
